Liste les millesimes — list_millesimes • didoscalim
…
    Valeur de retour

    un tibble avec les millesimes du datafile

    Voir également

    Other millesime: 
add_millesime(),
replace_millesime()

    Exemples

list_millesimes()
#> # A tibble: 131 × 10
#>    id     rid    millesime date_diffusion   rows headers columns extendedFilters
#>    <chr>  <chr>  <chr>     <chr>           <int> <list>  <list>  <list>         
#>  1 61eee… f9ba6… 2022-01   2022-01-24T00… 4.84e4 <df [1… <df [1… <list [0]>     
#>  2 61eee… 305ef… 2022-01   2022-01-24T00… 1.19e5 <df [1… <df [1… <list [0]>     
#>  3 61eee… a8dfd… 2021-10   2022-01-24T00… 2   e1 <df [1… <df [1… <list [0]>     
#>  4 61eee… a8dfd… 2022-10   2022-01-24T18… 2   e1 <df [1… <df [1… <list [0]>     
#>  5 61eee… 1d26b… 2022-01   2022-01-24T00… 3.61e6 <df [1… <df [1… <df [1 × 3]>   
#>  6 61eee… 421d3… 2022-01   2022-01-24T00… 2.55e6 <df [1… <df [1… <df [1 × 3]>   
#>  7 61eee… 3a972… 2022-01   2022-01-24T00… 1.09e5 <df [1… <df [1… <df [1 × 3]>   
#>  8 61eee… 8888c… 2022-01   2022-01-24T00… 7.53e5 <df [1… <df [1… <df [1 × 3]>   
#>  9 61eee… 7b5c7… 2021-10   2022-01-24T00… 2   e1 <df [8… <df [1… <df [1 × 3]>   
#> 10 61eee… 04a8d… 2022-01   2022-01-24T18… 1.7 e1 <df [3… <df [3… <list [0]>     
#> # … with 121 more rows, and 2 more variables: geoFields <list>, refs <list>
…
